Kaggle Competition: KKBoxâ€™s Music Recommendation Challenge
…
## # A tibble: 21 x 3
##     source_screen_name   count mean_target
##                  <chr>   <int>       <dbl>
##  1             Payment      12   0.6666667
##  2          My library   75980   0.6571729
##  3 Local playlist more 3228202   0.6369834
##  4   My library_Search    6451   0.6112231
##  5      Discover Chart  213658   0.5170319
##  6             Concert      47   0.5106383
##  7              Search  298487   0.4717492
##  8                <NA>  414804   0.4697881
##  9        Discover New   15955   0.4555312
## 10             Explore   72342   0.4481491
## # ... with 11 more rows
…
The occurance means frequency of occurrence of a song.In brief, you can regard occurance as the popularity of the song and the no_of_songs as the number of songs that correponds to that occurance.

target_vs_colcount(all_all %>% filter(!is.na(target)), "song_id", "Song Occurence", "Mean Target", "Song Occurence vs Target")

## # A tibble: 1,798 x 3
##    occurence no_of_songs avg_target
##        <int>       <int>      <dbl>
##  1         1      166766  0.3776309
##  2         2       48444  0.3787363
##  3         3       26319  0.3860202
##  4         4       16789  0.3852671
##  5         5       12023  0.3876071
##  6         6        9175  0.3898456
##  7         7        7165  0.3899312
##  8         8        6068  0.3931897
##  9         9        5078  0.3894797
## 10        10        4219  0.3944537
## # ... with 1,788 more rows
## # A tibble: 1,798 x 3
##    occurence no_of_songs avg_target
##        <int>       <int>      <dbl>
##  1      2752           1  0.8510174
##  2     13293           1  0.7941022
##  3     13973           1  0.7790024
##  4      6241           1  0.7655824
##  5     12855           1  0.7629716
##  6     11521           1  0.7626942
##  7     12004           1  0.7500833
##  8     10565           1  0.7480360
##  9      9244           1  0.7465383
## 10     11835           1  0.7418673
## # ... with 1,788 more rows
…
We can observe a nearly linear relation between the popularity of songs and the probability of replay.Itâ€™s not beyond our common guess.Weâ€™ll do some feature engineering base on this finding later.

Usersâ€™ frequncy v.s. Target

target_vs_colcount(all_all %>% filter(!is.na(target)), "msno", "User Occurence", "Mean Target", "User Occurence vs Target")

## # A tibble: 1,564 x 3
##    occurence no_of_songs avg_target
##        <int>       <int>      <dbl>
##  1         1         932  0.1620172
##  2         2         660  0.1643939
##  3         3         558  0.1296296
##  4         4         435  0.2120690
##  5         5         406  0.1768473
##  6         6         347  0.2055716
##  7         7         327  0.1896024
##  8         8         285  0.2078947
##  9         9         249  0.2190986
## 10        10         255  0.2607843
## # ... with 1,554 more rows
## # A tibble: 1,564 x 3
##    occurence no_of_songs avg_target
##        <int>       <int>      <dbl>
##  1      1109           1  0.9846709
##  2      1013           1  0.8795656
##  3      2091           1  0.8675275
##  4      1742           1  0.8628014
##  5       820           1  0.8548780
##  6      1081           1  0.8344126
##  7      1562           1  0.8341869
##  8      1522           1  0.8252300
##  9      1271           1  0.8221873
## 10      1039           1  0.8200192
## # ... with 1,554 more rows
…
## # A tibble: 95 x 2
## # Groups:   bd [95]
##       bd       n
##    <int>   <int>
##  1     0 3983720
##  2    25  347373
##  3    26  346011
##  4    24  341249
##  5    22  340820
##  6    27  338138
##  7    28  314849
##  8    23  311035
##  9    21  290234
## 10    29  289018
## # ... with 85 more rows
…
